<svg width="36" height="19" viewBox="0 0 36 19" fill="none" xmlns="http://www.w3.org/2000/svg">
<path d="M7.875 19.293C10.3082 19.293 12.3284 18.3252 13.7156 16.556C15.0807 14.8152 15.7656 12.3881 15.7656 9.55078H13.7656C13.7656 12.0923 13.1498 14.0364 12.1418 15.3219C11.156 16.5791 9.73086 17.293 7.875 17.293V19.293ZM15.7656 9.55078V9.52734H13.7656V9.55078H15.7656ZM15.7656 9.52734C15.7656 6.68999 15.0807 4.26542 13.7151 2.52723C12.3273 0.760788 10.307 -0.203125 7.875 -0.203125V1.79688C9.73209 1.79688 11.1571 2.50874 12.1424 3.76281C13.1498 5.04513 13.7656 6.98579 13.7656 9.52734H15.7656ZM7.875 -0.203125C5.44303 -0.203125 3.42274 0.760788 2.03494 2.52723C0.669347 4.26542 -0.015625 6.68999 -0.015625 9.52734H1.98438C1.98438 6.98579 2.60018 5.04513 3.60763 3.76281C4.59288 2.50874 6.01791 1.79688 7.875 1.79688V-0.203125ZM-0.015625 9.52734V9.55078H1.98438V9.52734H-0.015625ZM-0.015625 9.55078C-0.015625 12.3881 0.669337 14.8152 2.03436 16.556C3.4216 18.3252 5.4418 19.293 7.875 19.293V17.293C6.01914 17.293 4.59403 16.5791 3.60822 15.3219C2.60019 14.0364 1.98438 12.0923 1.98438 9.55078H-0.015625ZM7.875 14.457C7.24343 14.457 6.71931 14.1621 6.2988 13.4093C5.85051 12.6068 5.55859 11.3239 5.55859 9.55078H3.55859C3.55859 11.4925 3.87019 13.1628 4.55276 14.3847C5.26311 15.6563 6.39719 16.457 7.875 16.457V14.457ZM5.55859 9.55078V9.52734H3.55859V9.55078H5.55859ZM5.55859 9.52734C5.55859 7.75413 5.85056 6.4748 6.2982 5.67577C6.71756 4.92723 7.24112 4.63281 7.875 4.63281V2.63281C6.3995 2.63281 5.26486 3.42824 4.55336 4.69825C3.87014 5.91778 3.55859 7.58571 3.55859 9.52734H5.55859ZM7.875 4.63281C8.50888 4.63281 9.03244 4.92723 9.4518 5.67577C9.89944 6.4748 10.1914 7.75413 10.1914 9.52734H12.1914C12.1914 7.58571 11.8799 5.91778 11.1966 4.69825C10.4851 3.42824 9.3505 2.63281 7.875 2.63281V4.63281ZM10.1914 9.52734V9.55078H12.1914V9.52734H10.1914ZM10.1914 9.55078C10.1914 11.3239 9.89949 12.6068 9.4512 13.4093C9.03069 14.1621 8.50657 14.457 7.875 14.457V16.457C9.35281 16.457 10.4869 15.6563 11.1972 14.3847C11.8798 13.1628 12.1914 11.4925 12.1914 9.55078H10.1914ZM25.6641 9.22266H24.6641V10.1336L25.571 10.2183L25.6641 9.22266ZM25.6641 9.15234L25.4613 8.17312L24.6641 8.33822V9.15234H25.6641ZM17.0391 5.64844L18.0356 5.73148L18.0359 5.72818L17.0391 5.64844ZM17.0273 5.78906L16.0308 5.70602L15.9405 6.78906H17.0273V5.78906ZM20.2734 5.78906V6.78906H21.1685L21.2673 5.89949L20.2734 5.78906ZM20.2852 5.68359L21.279 5.79403L21.2795 5.79013L20.2852 5.68359ZM21.0352 8.03906V7.03906H20.0352V8.03906H21.0352ZM21.0352 10.5586H20.0352V11.5586H21.0352V10.5586ZM20.0508 13.3359L21.0429 13.2107L21.0395 13.1838L21.0347 13.1571L20.0508 13.3359ZM20.0273 13.207L21.0112 13.0281L20.8619 12.207H20.0273V13.207ZM16.6523 13.207V12.207H15.5725L15.6553 13.2837L16.6523 13.207ZM16.6641 13.3594L15.667 13.4361L15.6673 13.4394L16.6641 13.3594ZM23.2383 19.293C25.375 19.293 27.2509 18.742 28.6174 17.6871C30.0049 16.616 30.8125 15.0616 30.8125 13.2305H28.8125C28.8125 14.4228 28.3076 15.3997 27.3953 16.1039C26.462 16.8244 25.0507 17.293 23.2383 17.293V19.293ZM30.8125 13.2305V13.207H28.8125V13.2305H30.8125ZM30.8125 13.207C30.8125 11.8022 30.3021 10.5943 29.3633 9.71251C28.44 8.84521 27.1747 8.35948 25.7571 8.227L25.571 10.2183C26.6612 10.3202 27.4702 10.6782 27.9941 11.1703C28.5026 11.6479 28.8125 12.315 28.8125 13.207H30.8125ZM26.6641 9.22266V9.15234H24.6641V9.22266H26.6641ZM25.8669 10.1316C28.1631 9.65601 30.1914 7.98197 30.1914 5.26172H28.1914C28.1914 6.76022 27.126 7.82837 25.4613 8.17312L25.8669 10.1316ZM30.1914 5.26172V5.23828H28.1914V5.26172H30.1914ZM30.1914 5.23828C30.1914 3.58088 29.447 2.1782 28.1623 1.2188C26.9025 0.277925 25.1763 -0.203125 23.2031 -0.203125V1.79688C24.8744 1.79688 26.1424 2.20645 26.9656 2.82123C27.764 3.41751 28.1914 4.23553 28.1914 5.23828H30.1914ZM23.2031 -0.203125C21.2517 -0.203125 19.536 0.325669 18.2562 1.34044C16.9642 2.36479 16.1809 3.83593 16.0422 5.56869L18.0359 5.72818C18.1316 4.53126 18.6549 3.57662 19.4987 2.90761C20.3546 2.22902 21.6038 1.79688 23.2031 1.79688V-0.203125ZM16.0425 5.56539L16.0308 5.70602L18.0239 5.87211L18.0356 5.73148L16.0425 5.56539ZM17.0273 6.78906H20.2734V4.78906H17.0273V6.78906ZM21.2673 5.89949L21.279 5.79403L19.2913 5.57316L19.2796 5.67863L21.2673 5.89949ZM21.2795 5.79013C21.3201 5.41131 21.4924 5.12042 21.7761 4.90826C22.0732 4.68609 22.544 4.51562 23.2031 4.51562V2.51562C22.2099 2.51562 21.292 2.77289 20.5784 3.30659C19.8513 3.85029 19.3909 4.64338 19.2908 5.57706L21.2795 5.79013ZM23.2031 4.51562C23.8834 4.51562 24.2879 4.68397 24.5048 4.86498C24.6978 5.02598 24.8398 5.27586 24.8398 5.70703H26.8398C26.8398 4.76711 26.4956 3.92128 25.7862 3.32936C25.1008 2.75744 24.187 2.51562 23.2031 2.51562V4.51562ZM24.8398 5.70703V5.73047H26.8398V5.70703H24.8398ZM24.8398 5.73047C24.8398 6.11092 24.6919 6.4008 24.4206 6.6174C24.1304 6.84902 23.6386 7.03906 22.9219 7.03906V9.03906C23.9747 9.03906 24.9419 8.76035 25.6683 8.18045C26.4136 7.58553 26.8398 6.72111 26.8398 5.73047H24.8398ZM22.9219 7.03906H21.0352V9.03906H22.9219V7.03906ZM20.0352 8.03906V10.5586H22.0352V8.03906H20.0352ZM21.0352 11.5586H22.9688V9.55859H21.0352V11.5586ZM22.9688 11.5586C23.8616 11.5586 24.4289 11.7561 24.7498 12.001C25.0319 12.2163 25.2148 12.5346 25.2148 13.0664H27.2148C27.2148 11.9811 26.7942 11.0454 25.9631 10.4111C25.1707 9.80638 24.115 9.55859 22.9688 9.55859V11.5586ZM25.2148 13.0664V13.0898H27.2148V13.0664H25.2148ZM25.2148 13.0898C25.2148 13.4735 25.0631 13.7765 24.7772 14.0053C24.474 14.2478 23.9641 14.4453 23.2266 14.4453V16.4453C24.3054 16.4453 25.2897 16.1565 26.0266 15.567C26.7806 14.9637 27.2148 14.089 27.2148 13.0898H25.2148ZM23.2266 14.4453C21.6764 14.4453 21.1075 13.7221 21.0429 13.2107L19.0587 13.4612C19.2988 15.3638 21.1205 16.4453 23.2266 16.4453V14.4453ZM21.0347 13.1571L21.0112 13.0281L19.0435 13.3859L19.0669 13.5148L21.0347 13.1571ZM20.0273 12.207H16.6523V14.207H20.0273V12.207ZM15.6553 13.2837L15.667 13.4361L17.6611 13.2827L17.6494 13.1303L15.6553 13.2837ZM15.6673 13.4394C15.8074 15.1834 16.6362 16.6754 17.9944 17.7146C19.3398 18.7441 21.1523 19.293 23.2383 19.293V17.293C21.4923 17.293 20.1348 16.8341 19.2097 16.1262C18.2974 15.4282 17.7551 14.4533 17.6609 13.2793L15.6673 13.4394ZM33.5742 19.1992C35.1812 19.1992 36.4727 17.9078 36.4727 16.3008H34.4727C34.4727 16.8032 34.0766 17.1992 33.5742 17.1992V19.1992ZM36.4727 16.3008C36.4727 14.6781 35.1772 13.4023 33.5742 13.4023V15.4023C34.0807 15.4023 34.4727 15.7907 34.4727 16.3008H36.4727ZM33.5742 13.4023C31.9555 13.4023 30.6758 14.6821 30.6758 16.3008H32.6758C32.6758 15.7867 33.0601 15.4023 33.5742 15.4023V13.4023ZM30.6758 16.3008C30.6758 17.9037 31.9515 19.1992 33.5742 19.1992V17.1992C33.0641 17.1992 32.6758 16.8072 32.6758 16.3008H30.6758Z" fill="white"/>
</svg>
