<svg width="180" height="180" viewBox="0 0 180 180" fill="none" xmlns="http://www.w3.org/2000/svg">
<g filter="url(#filter0_bd_77_696)">
<rect x="60" y="54" width="60" height="60" rx="30" fill="url(#paint0_linear_77_696)" fill-opacity="0.1" shape-rendering="crispEdges"/>
<rect x="60" y="54" width="60" height="60" rx="30" fill="white" fill-opacity="0.02" shape-rendering="crispEdges"/>
<rect x="60.5" y="54.5" width="59" height="59" rx="29.5" stroke="white" stroke-opacity="0.05" shape-rendering="crispEdges"/>
</g>
<path d="M93.54 83.29L87.88 77.64C87.787 77.5463 87.6764 77.4719 87.5546 77.4211C87.4327 77.3704 87.302 77.3442 87.17 77.3442C87.038 77.3442 86.9073 77.3704 86.7854 77.4211C86.6635 77.4719 86.5529 77.5463 86.46 77.64C86.2737 77.8274 86.1692 78.0809 86.1692 78.345C86.1692 78.6092 86.2737 78.8627 86.46 79.05L91.41 84.05L86.46 89C86.2737 89.1874 86.1692 89.4409 86.1692 89.705C86.1692 89.9692 86.2737 90.2227 86.46 90.41C86.5526 90.5045 86.663 90.5797 86.7849 90.6312C86.9068 90.6827 87.0377 90.7095 87.17 90.71C87.3023 90.7095 87.4332 90.6827 87.555 90.6312C87.6769 90.5797 87.7874 90.5045 87.88 90.41L93.54 84.76C93.6415 84.6664 93.7225 84.5527 93.7779 84.4262C93.8333 84.2997 93.8619 84.1631 93.8619 84.025C93.8619 83.8869 93.8333 83.7503 93.7779 83.6238C93.7225 83.4973 93.6415 83.3837 93.54 83.29Z" fill="white"/>
<defs>
<filter id="filter0_bd_77_696" x="0" y="-6" width="180" height="186" filterUnits="userSpaceOnUse" color-interpolation-filters="sRGB">
<feFlood flood-opacity="0" result="BackgroundImageFix"/>
<feGaussianBlur in="BackgroundImage" stdDeviation="30"/>
<feComposite in2="SourceAlpha" operator="in" result="effect1_backgroundBlur_77_696"/>
<feColorMatrix in="SourceAlpha" type="matrix" values="0 0 0 0 0 0 0 0 0 0 0 0 0 0 0 0 0 0 127 0" result="hardAlpha"/>
<feOffset dy="6"/>
<feGaussianBlur stdDeviation="30"/>
<feComposite in2="hardAlpha" operator="out"/>
<feColorMatrix type="matrix" values="0 0 0 0 0 0 0 0 0 0 0 0 0 0 0 0 0 0 0.45 0"/>
<feBlend mode="normal" in2="effect1_backgroundBlur_77_696" result="effect2_dropShadow_77_696"/>
<feBlend mode="normal" in="SourceGraphic" in2="effect2_dropShadow_77_696" result="shape"/>
</filter>
<linearGradient id="paint0_linear_77_696" x1="89.9208" y1="54" x2="89.9209" y2="114" gradientUnits="userSpaceOnUse">
<stop stop-color="#020202"/>
<stop offset="1" stop-color="#4A00E0"/>
</linearGradient>
</defs>
</svg>
