<svg width="50" height="50" viewBox="0 0 50 50" fill="none" xmlns="http://www.w3.org/2000/svg">
<path d="M0 25C0 38.8071 11.1929 50 25 50C38.8071 50 50 38.8071 50 25C50 11.1929 38.8071 0 25 0C11.1929 0 0 11.1929 0 25Z" fill="white"/>
<path d="M37.5 17.1875C36.5625 17.6562 35.625 17.8125 34.5312 17.9688C35.625 17.3438 36.4062 16.4062 36.7188 15.1562C35.7812 15.7812 34.6875 16.0938 33.4375 16.4062C32.5 15.4687 31.0938 14.8438 29.6875 14.8438C26.4062 14.8438 23.9062 17.9688 24.6875 21.0938C20.4688 20.9375 16.7188 18.9063 14.0625 15.7813C12.6563 18.125 13.4375 21.0938 15.625 22.6562C14.8438 22.6562 14.0625 22.3438 13.2812 22.0313C13.2812 24.375 15 26.5625 17.3438 27.1875C16.5625 27.3437 15.7813 27.5 15 27.3438C15.625 29.375 17.5 30.9375 19.8437 30.9375C17.9687 32.3437 15.1562 33.125 12.5 32.8125C14.8438 34.2188 17.5 35.1562 20.3125 35.1562C29.8438 35.1562 35.1562 27.1875 34.8437 19.8437C35.9375 19.2187 36.875 18.2812 37.5 17.1875Z" fill="#130D1F"/>
</svg>
