<svg width="32" height="32" viewBox="0 0 32 32" fill="none" xmlns="http://www.w3.org/2000/svg">
<path d="M29.867 16.0001C29.867 23.8548 23.4995 30.2223 15.6448 30.2223C7.79005 30.2223 1.42255 23.8548 1.42255 16.0001C1.42255 8.14534 7.79005 1.77783 15.6448 1.77783C23.4995 1.77783 29.867 8.14534 29.867 16.0001Z" fill="#0052B5"/>
<path d="M12.0892 9.60005V2.22589C12.6684 2.07683 13.2618 1.96334 13.867 1.88787C14.4494 1.81524 15.0427 1.77783 15.6448 1.77783C16.2468 1.77783 16.8402 1.81524 17.4225 1.88787C18.0278 1.96334 18.6212 2.07683 19.2003 2.22589V11.5556L25.2448 5.50653C25.8963 6.10295 26.8467 7.29258 27.3781 8.00005L22.7559 12.4445H29.4189C29.568 13.0236 29.6815 13.6171 29.757 14.2223C29.8296 14.8047 29.867 15.398 29.867 16.0001C29.867 16.6021 29.8296 17.1954 29.757 17.7778C29.6815 18.3831 29.568 18.9765 29.4189 19.5556H21.6892L27.0236 24.5334C26.2591 25.5512 25.3612 26.4631 24.3559 27.2431L19.2003 22.0445V29.7742C18.6212 29.9233 18.0278 30.0368 17.4225 30.1122C16.8402 30.1849 16.2468 30.2223 15.6448 30.2223C15.0427 30.2223 14.4494 30.1849 13.867 30.1122C13.2618 30.0368 12.6683 29.9233 12.0892 29.7742L12.0892 20.6223L6.22255 26.6536C5.42692 25.9494 4.71075 25.1574 4.08921 24.2929L9.24477 19.5556H1.87061C1.72155 18.9765 1.60805 18.3831 1.53258 17.7778C1.45996 17.1954 1.42255 16.6021 1.42255 16.0001C1.42255 15.398 1.45996 14.8047 1.53258 14.2223C1.60805 13.6171 1.72155 13.0236 1.87061 12.4445H9.42255L4.26699 7.46533C5.05608 6.41506 5.9872 5.4776 7.03184 4.68146L12.0892 9.60005Z" fill="white"/>
<path d="M12.0892 12.4445L5.59852 5.93305C5.2553 6.27557 4.9295 6.63552 4.62255 7.01147L10.3114 12.4445H12.0892Z" fill="#D90026"/>
<path d="M19.2003 12.4445L25.691 5.93305C26.0342 6.27556 26.36 6.63551 26.667 7.01146L20.9781 12.4445H19.2003Z" fill="#D90026"/>
<path d="M19.2003 19.6777L25.691 26.1891C26.0342 25.8466 26.36 25.4867 26.667 25.1107L20.9781 19.6777H19.2003Z" fill="#D90026"/>
<path d="M12.0892 19.6777L5.59852 26.1891C5.2553 25.8466 4.9295 25.4867 4.62255 25.1107L10.3114 19.6777H12.0892Z" fill="#D90026"/>
<path d="M1.53258 14.2223C1.45996 14.8047 1.42255 15.398 1.42255 16.0001C1.42255 16.6021 1.45996 17.1954 1.53258 17.7778H13.867V30.1122C14.4494 30.1849 15.0427 30.2223 15.6448 30.2223C16.2468 30.2223 16.8402 30.1849 17.4225 30.1122V17.7778H29.757C29.8296 17.1954 29.867 16.6021 29.867 16.0001C29.867 15.398 29.8296 14.8047 29.757 14.2223H17.4225V1.88787C16.7267 1.78319 16.3698 1.77783 15.6448 1.77783C15.0427 1.77783 14.4494 1.81524 13.867 1.88787V14.2223H1.53258Z" fill="#D90026"/>
</svg>
